<?xml version="1.0" standalone="no"?>
<!DOCTYPE svg PUBLIC "-//W3C//DTD SVG 20010904//EN"
 "http://www.w3.org/TR/2001/REC-SVG-20010904/DTD/svg10.dtd">
<svg version="1.0" xmlns="http://www.w3.org/2000/svg"
 width="668.000000pt" height="720.000000pt" viewBox="0 0 668.000000 720.000000"
 preserveAspectRatio="xMidYMid meet">
<metadata>
Created by potrace 1.14, written by Peter Selinger 2001-2017
</metadata>
<g transform="translate(0.000000,720.000000) scale(0.100000,-0.100000)"
fill="#000000" stroke="none">
<path d="M5296 7178 c-57 -33 -81 -79 -81 -154 l0 -62 -810 -856 -810 -857
-55 6 c-80 9 -317 -12 -450 -39 l-115 -24 -848 564 -847 564 0 41 c0 52 -34
114 -78 141 -67 41 -167 21 -215 -44 -31 -41 -34 -133 -8 -176 42 -67 124 -95
196 -68 l43 17 806 -537 c443 -296 806 -540 806 -543 0 -3 -30 -17 -67 -31
-172 -64 -356 -196 -464 -333 -35 -44 -89 -136 -89 -152 0 -3 576 -5 1280 -5
1030 0 1280 2 1280 13 0 23 -74 138 -128 198 -79 87 -201 174 -336 239 -157
76 -288 116 -499 153 l-67 12 776 820 777 820 57 -3 c109 -7 180 54 180 154 0
123 -130 202 -234 142z m-1615 -2004 c90 -15 288 -73 319 -94 21 -14 9 -12
-38 4 -22 8 -42 11 -44 7 -2 -3 -75 -19 -163 -35 -181 -32 -414 -73 -850 -152
-412 -74 -418 -75 -438 -78 -9 -1 -32 -15 -50 -32 -18 -16 -1 3 38 41 189 188
486 318 811 355 102 11 297 4 415 -16z"/>
<path d="M239 4586 c-68 -18 -134 -61 -174 -113 -70 -91 -65 58 -65 -2069 0
-1749 1 -1928 16 -1971 33 -97 101 -167 196 -200 27 -10 96 -17 186 -21 l142
-5 0 -56 c0 -31 3 -73 6 -94 l7 -37 138 0 139 0 0 43 c0 23 3 66 6 94 l7 53
2462 0 2463 0 6 -22 c3 -13 6 -43 6 -68 0 -25 3 -62 6 -83 l7 -37 138 0 139 0
0 44 c0 23 3 70 6 103 l7 61 171 4 c118 4 184 10 214 21 96 34 165 105 196
203 15 44 16 231 14 1989 l-3 1940 -28 57 c-33 67 -80 111 -157 147 l-55 26
-3075 2 c-2416 1 -3085 -1 -3121 -11z m4374 -451 c106 -28 180 -93 217 -193
20 -52 20 -81 19 -1505 0 -799 -3 -1460 -7 -1469 -4 -10 -7 647 -7 1460 l0
1477 -28 57 c-32 65 -89 121 -156 152 l-46 21 -1915 0 -1915 0 -75 -36 c-101
-48 -133 -78 -172 -157 l-33 -67 0 -1460 c0 -1567 -3 -1484 49 -1560 15 -23
16 -27 3 -16 -9 7 -29 38 -44 70 l-28 56 -3 1454 c-3 1608 -6 1515 61 1603 42
55 101 94 168 112 82 22 3827 23 3912 1z m-131 -133 c42 -21 90 -63 134 -117
8 -11 6 -4 -5 16 l-21 36 23 -4 c13 -3 34 -23 51 -49 l28 -45 -8 -257 c-4
-141 -9 -269 -10 -284 -1 -16 -3 -76 -5 -135 -2 -78 -5 -45 -9 117 -4 143 -6
-10 -8 -421 -2 -517 -5 -655 -16 -692 -7 -25 -12 -48 -9 -51 4 -4 -10 -400
-33 -976 -6 -159 -10 -172 -60 -257 -13 -23 -26 -33 -44 -33 -14 0 -212 7
-440 15 -228 9 -599 22 -825 30 -225 8 -597 22 -825 30 -228 8 -597 22 -820
30 -223 8 -487 18 -587 21 l-183 7 -42 51 c-65 77 -67 82 -63 213 2 65 7 261
11 435 4 230 9 316 17 311 7 -4 -5 13 -25 38 -21 25 -48 68 -60 95 l-23 49 -3
804 c-3 907 -6 861 74 949 43 49 91 79 149 93 17 4 831 6 1810 6 l1780 -2 47
-23z m1448 -103 c102 -48 170 -140 193 -260 8 -47 7 -70 -7 -126 -40 -164
-165 -264 -331 -265 -133 -1 -251 70 -310 189 -27 51 -30 68 -30 148 0 76 4
99 26 145 44 94 105 148 207 187 60 22 186 13 252 -18z m6 -939 c73 -36 126
-91 162 -169 21 -45 26 -71 27 -136 0 -71 -4 -88 -33 -147 -38 -77 -92 -130
-171 -167 -47 -22 -70 -26 -141 -26 -73 0 -93 4 -142 28 -72 35 -134 97 -167
167 -22 46 -26 69 -26 145 0 78 4 97 28 147 85 174 290 244 463 158z m378
-1030 c17 -13 17 -14 -1 -21 -10 -4 -99 -9 -198 -10 -99 -1 -160 -5 -135 -8
43 -5 42 -5 -25 -11 -43 -4 15 -7 152 -8 122 -1 228 -5 237 -8 9 -3 16 -16 16
-28 0 -23 -2 -23 -187 -29 -104 -4 -235 -7 -293 -8 -58 -1 -96 -4 -85 -7 l20
-5 -20 -8 c-11 -4 112 -8 273 -8 l292 -1 0 -30 0 -30 -349 0 c-223 0 -352 -4
-356 -10 -3 -5 -27 -11 -53 -12 -88 -3 302 -16 531 -17 l227 -1 0 -30 0 -30
-482 -2 c-266 -1 -460 -4 -433 -7 l50 -5 -65 -6 c-36 -4 138 -8 385 -10 248
-2 471 -4 498 -4 44 -1 47 -2 47 -28 l0 -28 -292 0 c-449 0 -728 -10 -728 -27
0 -11 90 -13 510 -13 l510 0 0 -30 0 -30 -512 -2 c-282 -2 -523 -2 -535 0 -31
5 -34 62 -3 62 13 0 20 7 20 20 0 13 -7 20 -20 20 -14 0 -20 7 -20 24 0 15 7
26 20 29 11 3 20 13 20 22 0 9 -9 19 -20 22 -13 3 -20 14 -20 29 0 17 6 24 20
24 13 0 20 7 20 20 0 13 -7 20 -20 20 -16 0 -20 7 -20 30 0 23 4 30 20 30 13
0 20 7 20 20 0 13 -7 20 -20 20 -15 0 -20 7 -20 25 0 20 5 25 23 25 13 0 34
11 47 25 l23 25 -34 0 -34 0 30 20 c29 20 44 20 491 18 386 -3 464 -5 478 -18z
m46 -574 l0 -23 -242 -6 c-300 -9 -775 -9 -805 -1 -16 4 -23 14 -23 29 0 17 7
25 23 27 12 2 253 2 535 0 l512 -2 0 -24z m-258 -76 l258 0 0 -25 0 -25 -535
0 -535 0 0 24 c0 17 7 26 23 30 12 3 136 3 276 0 140 -2 371 -4 513 -4z m258
-120 l0 -30 -535 0 -535 0 0 30 0 30 535 0 535 0 0 -30z m0 -95 l0 -25 -277
-1 c-153 0 -394 -2 -535 -5 l-258 -5 0 31 0 30 535 0 535 0 0 -25z m0 -100 l0
-25 -535 0 -535 0 0 25 0 25 535 0 535 0 0 -25z m-210 -75 c61 -4 83 -7 53 -8
-41 -2 -51 -5 -47 -16 3 -8 18 -17 32 -19 15 -2 -181 -5 -435 -6 l-463 -1 0
30 0 30 378 -1 c207 -1 424 -5 482 -9z m-30 -97 c-64 -3 -90 -7 -80 -13 12 -8
10 -10 -10 -11 -14 -1 0 -5 30 -9 30 -4 -126 -7 -347 -8 -222 -1 -406 -2 -410
-2 -5 0 -9 11 -11 25 l-3 25 463 -2 c255 -1 420 -4 368 -5z m-135 -103 c-110
-5 -103 -6 83 -8 129 -1 211 2 223 9 11 6 25 8 32 6 7 -2 -3 -11 -21 -21 -29
-15 -76 -16 -485 -14 -412 3 -454 5 -477 21 -23 16 -8 17 370 15 241 -1 348
-4 275 -8z"/>
<path d="M5753 3819 c-39 -14 -43 -39 -43 -258 l0 -210 26 -20 c15 -12 32 -21
39 -21 7 0 24 9 39 21 l26 20 0 213 c0 170 -3 216 -15 233 -17 25 -43 33 -72
22z"/>
<path d="M5801 2863 c-18 -16 -135 -312 -156 -393 -8 -33 27 -80 59 -80 46 0
62 26 130 213 72 201 78 237 44 261 -29 21 -51 20 -77 -1z"/>
</g>
</svg>
